R notebook for “Do verbs have an inherent association to specific nouns than others? A preliminary experimental study”
…
Getting the summarised responses across all participants.

resp_count2 <- resp_count |> 
  group_by(eng_v, groups, response_ID) |> 
  summarise(n = sum(n), .groups = "drop") |> 
  arrange(groups) |> 
  rename(freq = n) |> 
  left_join(nouns, by = join_by(response_ID))
resp_count2

# A tibble: 130 × 6
   eng_v   groups response_ID  freq NOUN        COLS   
   <chr>   <chr>  <chr>       <dbl> <chr>       <chr>  
 1 Bring   A      A1              1 log         #4E79A7
 2 Bring   A      A2              6 wheelbarrow #F28E2B
 3 Bring   A      A3              5 hammer      #E15759
 4 Bring   A      A4              5 box         #76B7B2
 5 Collect A      A1             11 log         #4E79A7
 6 Collect A      A2              3 wheelbarrow #F28E2B
 7 Collect A      A3              1 hammer      #E15759
 8 Collect A      A4              2 box         #76B7B2
 9 Fetch   A      A1              5 log         #4E79A7
10 Fetch   A      A2              7 wheelbarrow #F28E2B
# ℹ 120 more rows
…
